[
    {
        "type": 20,
        "title": "Trốn Tìm",
        "artist": "Đen ft MV",
        "artwork": "https://picsum.photos/seed/picsum/200/300",
        "url": "https://audio.jukehost.co.uk/NLwyAa6u7jMO2rHt0fyrMDJSA15yNH0T",
        "id": 28
    },
    {
        "type": 20,
        "title": "ĐƯỜNG CHÂN TRỜI",
        "artist": "CHILLIES",
        "artwork": "https://picsum.photos/200/300?grayscale",
        "url": "https://audio.jukehost.co.uk/OM4Wmy2IzSWODakjNq0UMgNJTrj2zZq4",
        "id": 27
    },
    {
        "type": 20,
        "title": "Đường Tôi Chở Em Về",
        "artist": "buitruonglinh x Freak D",
        "artwork": "https://picsum.photos/id/1/200/300",
        "url": "https://audio.jukehost.co.uk/8xal2osIxgunuPnLpyyA9MDcYAZx57S1",
        "id": 26
    },
    {
        "type": 20,
        "title": "Đố Anh Đoán Được",
        "artist": "Bích Phương",
        "artwork": "https://picsum.photos/id/10/200/300",
        "url": "https://audio.jukehost.co.uk/bR3gNc9W9S5iHYpHGFjr5XYsChGH0vh8",
        "id": 25
    },
    {
        "type": 20,
        "title": "Không Cần Cố",
        "artist": "MCK x TLINH",
        "artwork": "https://picsum.photos/id/100/200/300",
        "url": "https://audio.jukehost.co.uk/26MYQbxN8aCv6RDKdoQK2L5BgK3unUJB",
        "id": 24
    },
    {
        "type": 20,
        "title": "THƯƠNG THẦM",
        "artist": "HOÀI BẢO",
        "artwork": "https://picsum.photos/id/1000/200/300",
        "url": "https://audio.jukehost.co.uk/qxpUlMYT4tn7nQY9SBdOgmQ8loM9e049",
        "id": 23
    },
    {
        "type": 20,
        "title": "THE PLAYAH",
        "artist": "SOOBIN X SLIMV",
        "artwork": "https://picsum.photos/id/1000/200/300",
        "url": "https://audio.jukehost.co.uk/I5MizPIs63rDpqvtBvw4qkZCGfl5t9QI",
        "id": 22
    },
    {
        "type": 20,
        "title": " Tháng Năm Lofi",
        "artist": "Soobin x Freak D",
        "artwork": "https://picsum.photos/id/1000/200/300",
        "url": "https://audio.jukehost.co.uk/vUaLpkCuXYMWrNVgqZCmffc6cxQnY4IX",
        "id": 21
    }
]